Lab02/dump1.vcd
$date
	Tue Apr 13 21:09:23 2021
$end
$version
	Icarus Verilog
$end
$timescale
	1s
$end
$scope module NOT $end
$var wire 1 ! a $end
$var reg 1 " b $end
$upscope $end
$scope module testbench $end
$var wire 1 # sum $end
$var wire 1 $ cout $end
$var reg 1 % a $end
$var reg 1 & b $end
$var reg 1 ' cin $end
$scope module dut $end
$var wire 1 % a $end
$var wire 1 & b $end
$var wire 1 ' cin $end
$var wire 1 ( x $end
$var wire 1 ) s $end
$var wire 1 * out $end
$var wire 1 + bc $end
$var wire 1 , bXc $end
$var wire 1 - ac $end
$var wire 1 . ab $end
$var reg 1 $ cout $end
$var reg 1 # sum $end
$scope module A0 $end
$var wire 1 % a $end
$var wire 1 & b $end
$var reg 1 . c $end
$upscope $end
$scope module A1 $end
$var wire 1 & a $end
$var wire 1 ' b $end
$var reg 1 + c $end
$upscope $end
$scope module A2 $end
$var wire 1 % a $end
$var wire 1 ' b $end
$var reg 1 - c $end
$upscope $end
$scope module O0 $end
$var wire 1 . a $end
$var wire 1 + b $end
$var reg 1 ( c $end
$upscope $end
$scope module O1 $end
$var wire 1 ( a $end
$var wire 1 - b $end
$var reg 1 * c $end
$upscope $end
$scope module X0 $end
$var wire 1 & a $end
$var wire 1 ' b $end
$var reg 1 , c $end
$upscope $end
$scope module X1 $end
$var wire 1 % a $end
$var wire 1 , b $end
$var reg 1 ) c $end
$upscope $end
$upscope $end
$upscope $end
$enddefinitions $end
#0
$dumpvars
0.
0-
0,
0+
0*
0)
0(
0'
0&
0%
0$
0#
x"
z!
$end
#10
1#
1)
1,
1&
#20
1#
0,
1)
0&
1%
#30
1$
1*
0#
1(
0)
1.
1,
1&
#40
0$
0*
0(
0#
0,
0.
0)
0&
0%
#50
1#
1)
1,
1&
#60
1#
0,
1)
0&
1%
#70
1$
1*
0#
1(
0)
1.
1,
1&
#80
0$
0*
0(
1#
0.
1)
0&
0%
1'
#90
1$
0#
1*
0)
1(
0,
1+
1&
#100
0(
0#
0+
1,
1-
0)
0&
1%
#110
1#
1)
1(
1.
0,
1+
1&
#120
0$
0*
0(
1#
0+
1,
0.
0-
1)
0&
0%
#130
1$
0#
1*
0)
1(
0,
1+
1&
#140
0(
0#
0+
1,
1-
0)
0&
1%
#150
1#
1)
1(
1.
0,
1+
1&
#160
0$
0*
0(
1#
0+
1,
0.
0-
1)
0&
0%
#170
1$
0#
1*
0)
1(
0,
1+
1&
#180
0(
0#
0+
1,
1-
0)
0&
1%
#190
1#
1)
1(
1.
0,
1+
1&
#200
0$
0*
0(
1#
0+
1,
0.
0-
1)
0&
0%
#210
1$
0#
1*
0)
1(
0,
1+
1&
#220
0(
0#
0+
1,
1-
0)
0&
1%
#230
1#
1)
1(
1.
0,
1+
1&
#240
0$
0*
0(
1#
0+
1,
0.
0-
1)
0&
0%
